<svg width="242" height="36" viewBox="0 0 242 36" fill="none" xmlns="http://www.w3.org/2000/svg">
<path d="M4.224 14.08C4.792 14.08 5.28 14.18 5.688 14.38C6.104 14.58 6.428 14.864 6.66 15.232C6.892 15.6 7.008 16.044 7.008 16.564C7.008 17.076 6.892 17.52 6.66 17.896C6.428 18.264 6.104 18.548 5.688 18.748C5.28 18.948 4.792 19.048 4.224 19.048H2.46V22H1.176V14.08H4.224ZM4.02 17.944C4.588 17.944 5.004 17.828 5.268 17.596C5.54 17.356 5.676 17.012 5.676 16.564C5.676 16.108 5.54 15.764 5.268 15.532C5.004 15.292 4.588 15.172 4.02 15.172H2.46V17.944H4.02ZM10.9945 15.88C11.5785 15.88 12.0945 16.004 12.5425 16.252C12.9905 16.5 13.3385 16.86 13.5865 17.332C13.8425 17.796 13.9705 18.352 13.9705 19C13.9705 19.648 13.8425 20.208 13.5865 20.68C13.3385 21.144 12.9905 21.5 12.5425 21.748C12.0945 21.996 11.5785 22.12 10.9945 22.12C10.4105 22.12 9.89453 21.996 9.44653 21.748C8.99853 21.5 8.64653 21.144 8.39053 20.68C8.13453 20.208 8.00653 19.648 8.00653 19C8.00653 18.352 8.13453 17.796 8.39053 17.332C8.64653 16.86 8.99853 16.5 9.44653 16.252C9.89453 16.004 10.4105 15.88 10.9945 15.88ZM10.9945 16.888C10.6345 16.888 10.3265 16.972 10.0705 17.14C9.82253 17.3 9.63053 17.536 9.49453 17.848C9.35853 18.16 9.29053 18.544 9.29053 19C9.29053 19.448 9.35853 19.832 9.49453 20.152C9.63053 20.464 9.82253 20.704 10.0705 20.872C10.3265 21.032 10.6345 21.112 10.9945 21.112C11.3545 21.112 11.6585 21.032 11.9065 20.872C12.1545 20.704 12.3465 20.464 12.4825 20.152C12.6185 19.832 12.6865 19.448 12.6865 19C12.6865 18.544 12.6185 18.16 12.4825 17.848C12.3465 17.536 12.1545 17.3 11.9065 17.14C11.6585 16.972 11.3545 16.888 10.9945 16.888ZM23.0421 16H24.4341L22.4181 22H21.0141L19.5021 17.548L18.0741 22H16.6701L14.6661 16H16.0461L17.4141 20.74L18.9021 16H20.1861L21.6741 20.74L23.0421 16ZM28.1399 22.12C27.5399 22.12 27.0119 21.996 26.5559 21.748C26.0999 21.5 25.7439 21.144 25.4879 20.68C25.2399 20.208 25.1159 19.648 25.1159 19C25.1159 18.352 25.2399 17.796 25.4879 17.332C25.7439 16.86 26.0959 16.5 26.5439 16.252C26.9919 16.004 27.4999 15.88 28.0679 15.88C28.6519 15.88 29.1479 16 29.5559 16.24C29.9639 16.48 30.2759 16.808 30.4919 17.224C30.7079 17.64 30.8159 18.112 30.8159 18.64C30.8159 18.784 30.8119 18.92 30.8039 19.048C30.7959 19.176 30.7839 19.288 30.7679 19.384H25.9439V18.4H30.2039L29.5679 18.592C29.5679 18.048 29.4319 17.632 29.1599 17.344C28.8879 17.048 28.5159 16.9 28.0439 16.9C27.6999 16.9 27.3999 16.98 27.1439 17.14C26.8879 17.3 26.6919 17.54 26.5559 17.86C26.4199 18.172 26.3519 18.556 26.3519 19.012C26.3519 19.46 26.4239 19.84 26.5679 20.152C26.7119 20.464 26.9159 20.7 27.1799 20.86C27.4439 21.02 27.7559 21.1 28.1159 21.1C28.5159 21.1 28.8399 21.024 29.0879 20.872C29.3359 20.72 29.5319 20.508 29.6759 20.236L30.6959 20.716C30.5519 21.004 30.3559 21.256 30.1079 21.472C29.8679 21.68 29.5799 21.84 29.2439 21.952C28.9079 22.064 28.5399 22.12 28.1399 22.12ZM32.4374 22V16H33.5294L33.6494 17.08C33.8094 16.688 34.0454 16.392 34.3574 16.192C34.6774 15.984 35.0694 15.88 35.5334 15.88C35.6534 15.88 35.7734 15.892 35.8934 15.916C36.0134 15.932 36.1134 15.96 36.1934 16L36.0134 17.128C35.9254 17.096 35.8254 17.072 35.7134 17.056C35.6094 17.032 35.4654 17.02 35.2814 17.02C35.0334 17.02 34.7894 17.088 34.5494 17.224C34.3094 17.352 34.1094 17.548 33.9494 17.812C33.7974 18.076 33.7214 18.412 33.7214 18.82V22H32.4374ZM39.8938 22.12C39.2938 22.12 38.7658 21.996 38.3098 21.748C37.8538 21.5 37.4978 21.144 37.2418 20.68C36.9938 20.208 36.8698 19.648 36.8698 19C36.8698 18.352 36.9938 17.796 37.2418 17.332C37.4978 16.86 37.8498 16.5 38.2978 16.252C38.7458 16.004 39.2538 15.88 39.8218 15.88C40.4058 15.88 40.9018 16 41.3098 16.24C41.7178 16.48 42.0298 16.808 42.2458 17.224C42.4618 17.64 42.5698 18.112 42.5698 18.64C42.5698 18.784 42.5658 18.92 42.5578 19.048C42.5498 19.176 42.5378 19.288 42.5218 19.384H37.6978V18.4H41.9578L41.3218 18.592C41.3218 18.048 41.1858 17.632 40.9138 17.344C40.6418 17.048 40.2698 16.9 39.7978 16.9C39.4538 16.9 39.1538 16.98 38.8978 17.14C38.6418 17.3 38.4458 17.54 38.3098 17.86C38.1738 18.172 38.1058 18.556 38.1058 19.012C38.1058 19.46 38.1778 19.84 38.3218 20.152C38.4658 20.464 38.6698 20.7 38.9338 20.86C39.1978 21.02 39.5098 21.1 39.8698 21.1C40.2698 21.1 40.5938 21.024 40.8418 20.872C41.0898 20.72 41.2858 20.508 41.4298 20.236L42.4498 20.716C42.3058 21.004 42.1098 21.256 41.8618 21.472C41.6218 21.68 41.3338 21.84 40.9978 21.952C40.6618 22.064 40.2938 22.12 39.8938 22.12ZM46.4953 22.12C45.9993 22.12 45.5473 21.996 45.1393 21.748C44.7393 21.5 44.4233 21.144 44.1913 20.68C43.9593 20.216 43.8433 19.66 43.8433 19.012C43.8433 18.34 43.9673 17.772 44.2153 17.308C44.4633 16.844 44.7953 16.492 45.2113 16.252C45.6273 16.004 46.0833 15.88 46.5793 15.88C47.0913 15.88 47.5233 16.02 47.8753 16.3C48.2273 16.58 48.4633 16.944 48.5833 17.392L48.4393 17.524V13.3H49.7233V22H48.5833L48.4873 20.368L48.6553 20.38C48.5993 20.74 48.4673 21.052 48.2593 21.316C48.0513 21.572 47.7913 21.772 47.4793 21.916C47.1753 22.052 46.8473 22.12 46.4953 22.12ZM46.7713 21.088C47.1153 21.088 47.4113 21 47.6593 20.824C47.9073 20.648 48.0993 20.4 48.2353 20.08C48.3713 19.76 48.4393 19.376 48.4393 18.928C48.4393 18.512 48.3713 18.156 48.2353 17.86C48.0993 17.556 47.9073 17.324 47.6593 17.164C47.4193 17.004 47.1393 16.924 46.8193 16.924C46.2833 16.924 45.8673 17.108 45.5713 17.476C45.2753 17.844 45.1273 18.352 45.1273 19C45.1273 19.648 45.2713 20.16 45.5593 20.536C45.8473 20.904 46.2513 21.088 46.7713 21.088ZM58.8331 22.12C58.4811 22.12 58.1571 22.052 57.8611 21.916C57.5731 21.78 57.3291 21.592 57.1291 21.352C56.9291 21.104 56.7811 20.828 56.6851 20.524L56.8411 20.32L56.7451 22H55.6171V13.3H56.9011V17.512L56.7571 17.308C56.9091 16.892 57.1691 16.552 57.5371 16.288C57.9051 16.016 58.3491 15.88 58.8691 15.88C59.3491 15.88 59.7891 16.004 60.1891 16.252C60.5971 16.5 60.9171 16.856 61.1491 17.32C61.3811 17.784 61.4971 18.348 61.4971 19.012C61.4971 19.66 61.3771 20.216 61.1371 20.68C60.9051 21.144 60.5851 21.5 60.1771 21.748C59.7771 21.996 59.3291 22.12 58.8331 22.12ZM58.5571 21.088C59.0771 21.088 59.4811 20.904 59.7691 20.536C60.0651 20.16 60.2131 19.648 60.2131 19C60.2131 18.352 60.0691 17.844 59.7811 17.476C59.4931 17.108 59.0891 16.924 58.5691 16.924C58.2331 16.924 57.9411 17.012 57.6931 17.188C57.4451 17.356 57.2491 17.596 57.1051 17.908C56.9691 18.22 56.9011 18.592 56.9011 19.024C56.9011 19.448 56.9691 19.816 57.1051 20.128C57.2411 20.432 57.4331 20.668 57.6811 20.836C57.9371 21.004 58.2291 21.088 58.5571 21.088ZM68.1859 16L65.5579 22.708C65.3819 23.172 65.1899 23.54 64.9819 23.812C64.7819 24.084 64.5499 24.28 64.2859 24.4C64.0219 24.52 63.7139 24.58 63.3619 24.58C63.0739 24.58 62.8059 24.54 62.5579 24.46C62.3179 24.388 62.1059 24.288 61.9219 24.16L62.2339 23.164C62.3859 23.292 62.5459 23.388 62.7139 23.452C62.8899 23.516 63.0779 23.548 63.2779 23.548C63.4939 23.548 63.6859 23.488 63.8539 23.368C64.0299 23.256 64.1859 23.028 64.3219 22.684L64.5859 22.036L63.9499 20.548L62.0779 16H63.5179L64.8499 19.768L65.1979 20.896L65.5939 19.66L66.8539 16H68.1859Z" fill="#052E66"/>
<g clip-path="url(#clip0_75_8248)">
<path d="M89.0085 16.0171C93.4315 16.0171 97.0171 12.4315 97.0171 8.00855C97.0171 3.58555 93.4315 0 89.0085 0C84.5855 0 81 3.58555 81 8.00855C81 12.4315 84.5855 16.0171 89.0085 16.0171Z" fill="#29ADFF"/>
<path d="M105.126 16.0171C109.549 16.0171 113.135 12.4315 113.135 8.00855C113.135 3.58555 109.549 0 105.126 0C100.703 0 97.1179 3.58555 97.1179 8.00855C97.1179 12.4315 100.703 16.0171 105.126 16.0171Z" fill="#29ADFF"/>
<path d="M89.0085 32.0366C93.4315 32.0366 97.0171 28.4511 97.0171 24.0281C97.0171 19.6051 93.4315 16.0195 89.0085 16.0195C84.5855 16.0195 81 19.6051 81 24.0281C81 28.4511 84.5855 32.0366 89.0085 32.0366Z" fill="#29ADFF"/>
<path d="M105.126 32.0366C109.549 32.0366 113.135 28.4511 113.135 24.0281C113.135 19.6051 109.549 16.0195 105.126 16.0195C100.703 16.0195 97.1179 19.6051 97.1179 24.0281C97.1179 28.4511 100.703 32.0366 105.126 32.0366Z" fill="#29ADFF"/>
<path d="M105.129 12.0125C107.34 12.0125 109.133 10.2197 109.133 8.00818C109.133 5.79668 107.34 4.00391 105.129 4.00391C102.917 4.00391 101.124 5.79668 101.124 8.00818C101.124 10.2197 102.917 12.0125 105.129 12.0125Z" fill="#052E66"/>
<path d="M123.794 30C123.499 30 123.351 29.8394 123.351 29.5182L123.621 15.9701L123.351 2.84603C123.351 2.52484 123.499 2.36424 123.794 2.36424H141.409C141.55 2.36424 141.666 2.40921 141.756 2.49914C141.833 2.57623 141.871 2.69186 141.871 2.84603V5.62117C141.871 5.77535 141.833 5.89098 141.756 5.96807C141.666 6.058 141.55 6.10297 141.409 6.10297H128.535L128.265 13.4841H140.33C140.651 13.4841 140.811 13.6382 140.811 13.9466V16.7217C140.811 16.8374 140.766 16.953 140.677 17.0686C140.599 17.1586 140.484 17.2035 140.33 17.2035H128.265L128.535 26.2613H141.717C141.859 26.2613 141.974 26.3062 142.064 26.3962C142.154 26.4861 142.199 26.6017 142.199 26.7431V29.5182C142.199 29.6595 142.154 29.7752 142.064 29.8651C141.974 29.955 141.859 30 141.717 30H123.794ZM146.188 30C145.88 30 145.726 29.8394 145.726 29.5182L145.938 16.105L145.726 2.84603C145.726 2.52484 145.88 2.36424 146.188 2.36424H150.197C150.518 2.36424 150.679 2.52484 150.679 2.84603L150.447 16.0858L150.679 29.5182C150.679 29.8394 150.518 30 150.197 30H146.188ZM158.946 20.711C159.036 22.8951 159.518 24.5204 160.392 25.5868C161.265 26.6531 162.531 27.1863 164.188 27.1863C166.655 27.1863 168.177 25.9465 168.756 23.4669C168.82 23.1971 168.993 23.0622 169.276 23.0622H173.034C173.188 23.0622 173.31 23.0943 173.4 23.1585C173.49 23.2228 173.522 23.3127 173.496 23.4283C173.304 24.7516 172.809 25.9465 172.012 27.0129C171.203 28.0921 170.13 28.9401 168.794 29.5567C167.419 30.1863 165.865 30.5011 164.13 30.5011C161.998 30.5011 160.16 30.0514 158.619 29.152C157.103 28.2655 155.946 27.0193 155.15 25.4133C154.379 23.8587 153.993 22.0215 153.993 19.9016C153.993 17.756 154.385 15.8802 155.169 14.2742C155.953 12.6682 157.109 11.4156 158.638 10.5162C160.141 9.62971 161.92 9.18646 163.976 9.18646C166.045 9.18646 167.824 9.62971 169.314 10.5162C170.83 11.4156 171.974 12.6811 172.745 14.3128C173.541 15.9701 173.965 17.9359 174.017 20.2099C174.017 20.544 173.856 20.711 173.535 20.711H158.946ZM164.015 12.4627C162.601 12.4627 161.484 12.8931 160.661 13.7539C159.839 14.6147 159.312 15.8738 159.081 17.5311H168.717C168.653 16.6061 168.441 15.7581 168.081 14.9873C167.734 14.2549 167.207 13.6447 166.501 13.1564C165.833 12.6939 165.004 12.4627 164.015 12.4627ZM186.389 30.5011C184.321 30.5011 182.528 30.0642 181.012 29.1906C179.496 28.3169 178.346 27.09 177.563 25.5097C176.779 23.9294 176.387 22.06 176.387 19.9016C176.387 17.7431 176.779 15.8609 177.563 14.2549C178.334 12.6618 179.496 11.4156 181.051 10.5162C182.58 9.62971 184.391 9.18646 186.486 9.18646C188.156 9.18646 189.62 9.48196 190.88 10.073C192.177 10.6897 193.192 11.5183 193.925 12.559C194.695 13.6639 195.164 14.9102 195.331 16.2977C195.344 16.4519 195.312 16.5804 195.235 16.6832C195.158 16.7731 195.036 16.8181 194.869 16.8181H191.284C191.002 16.8181 190.828 16.6639 190.764 16.3556C190.52 15.0836 190.012 14.1329 189.241 13.5033C188.458 12.8609 187.539 12.5397 186.486 12.5397C183.119 12.5526 181.436 14.9937 181.436 19.863C181.436 22.3555 181.854 24.1928 182.689 25.3748C183.55 26.5825 184.841 27.1863 186.563 27.1863C187.758 27.1863 188.753 26.8009 189.55 26.03C190.321 25.272 190.796 24.1735 190.976 22.7345C190.989 22.5932 191.04 22.4776 191.13 22.3876C191.207 22.3106 191.323 22.272 191.477 22.272H195.139C195.306 22.272 195.428 22.3106 195.505 22.3876C195.582 22.4647 195.614 22.5739 195.601 22.7153C195.447 24.2056 194.972 25.5482 194.175 26.7431C193.378 27.9251 192.306 28.8437 190.957 29.4989C189.582 30.167 188.059 30.5011 186.389 30.5011ZM202.597 29.7495C201.672 29.3255 200.933 28.6574 200.381 27.7452C199.815 26.8073 199.533 25.6317 199.533 24.2185L199.552 15.6811L199.571 13.195H197.432C197.304 13.195 197.181 13.15 197.066 13.0601C196.976 12.983 196.931 12.8674 196.931 12.7132V10.15C196.931 9.99587 196.976 9.88024 197.066 9.80315C197.181 9.71322 197.304 9.66825 197.432 9.66825H199.533L199.475 5.06229C199.475 4.74109 199.635 4.5805 199.957 4.5805H204.042C204.184 4.5805 204.299 4.62546 204.389 4.7154C204.466 4.79249 204.505 4.90812 204.505 5.06229L204.428 9.66825H208.899C209.027 9.66825 209.136 9.71322 209.226 9.80315C209.316 9.89309 209.361 10.0087 209.361 10.15V12.7132C209.361 12.8545 209.316 12.9702 209.226 13.0601C209.136 13.15 209.027 13.195 208.899 13.195H204.408V15.5654L204.428 24.0836C204.428 25.06 204.627 25.7666 205.025 26.2035C205.398 26.6146 205.982 26.8202 206.779 26.8202C207.563 26.8202 208.231 26.7366 208.783 26.5696C208.809 26.5568 208.867 26.5503 208.957 26.5503C209.201 26.5503 209.323 26.6917 209.323 26.9743V29.2677C209.323 29.4347 209.297 29.5503 209.246 29.6146C209.169 29.7173 209.079 29.7816 208.976 29.8073C207.819 30.1799 206.734 30.3662 205.719 30.3662C204.537 30.3662 203.496 30.1606 202.597 29.7495ZM212.83 30C212.522 30 212.368 29.8394 212.368 29.5182L212.541 19.6896L212.368 10.15C212.368 9.82885 212.522 9.66825 212.83 9.66825H216.974C217.282 9.66825 217.436 9.82885 217.436 10.15L217.243 19.6896L217.436 29.5182C217.436 29.8394 217.282 30 216.974 30H212.83ZM212.888 7.45199C212.747 7.45199 212.631 7.40703 212.541 7.31709C212.464 7.24 212.425 7.12437 212.425 6.9702V3.25074C212.425 3.10941 212.464 3.00021 212.541 2.92312C212.631 2.83319 212.747 2.78822 212.888 2.78822H216.916C217.057 2.78822 217.173 2.83319 217.263 2.92312C217.353 3.01306 217.398 3.12226 217.398 3.25074V6.9702C217.398 7.11153 217.353 7.22716 217.263 7.31709C217.173 7.40703 217.057 7.45199 216.916 7.45199H212.888ZM225.569 29.6724C224.156 29.1585 223.019 28.3747 222.158 27.3212C221.297 26.2677 220.822 25.0086 220.732 23.5439C220.719 23.3898 220.757 23.2677 220.847 23.1778C220.924 23.1007 221.04 23.0622 221.194 23.0622H225.029C225.325 23.0622 225.479 23.2228 225.492 23.5439C225.582 24.8544 226.044 25.818 226.879 26.4347C227.714 27.0514 228.909 27.3598 230.464 27.3598C231.774 27.3598 232.809 27.0964 233.567 26.5696C234.299 26.0686 234.665 25.3362 234.665 24.3726C234.665 23.7431 234.44 23.2613 233.991 22.9272C233.515 22.5675 232.95 22.3041 232.295 22.1371C231.601 21.9572 230.644 21.7709 229.423 21.5782C227.843 21.3341 226.43 21.0258 225.183 20.6532C224.104 20.332 223.166 19.7538 222.37 18.9187C221.586 18.0965 221.194 16.9401 221.194 15.4498C221.194 14.1136 221.541 12.983 222.235 12.058C222.941 11.1201 223.924 10.4134 225.183 9.93806C226.442 9.46268 227.946 9.225 229.693 9.225C232.275 9.225 234.357 9.74534 235.937 10.786C237.53 11.8395 238.423 13.3684 238.616 15.3727C238.642 15.5269 238.609 15.6489 238.519 15.7389C238.43 15.8288 238.307 15.8738 238.153 15.8738H234.511C234.215 15.8738 234.048 15.7196 234.01 15.4112C233.856 14.3834 233.406 13.5933 232.661 13.0408C231.929 12.5012 230.92 12.2314 229.635 12.2314C228.427 12.2314 227.502 12.4691 226.86 12.9445C226.205 13.4198 225.877 14.1393 225.877 15.1029C225.877 15.6939 226.096 16.15 226.532 16.4712C226.982 16.8052 227.535 17.0494 228.19 17.2035C228.806 17.3449 229.732 17.5183 230.965 17.7239C232.776 18.0065 234.215 18.302 235.282 18.6104C236.374 18.9316 237.331 19.5226 238.153 20.3834C238.95 21.2185 239.348 22.4198 239.348 23.9872C239.348 25.3234 238.963 26.4797 238.192 27.4561C237.434 28.4197 236.374 29.1649 235.012 29.6917C233.676 30.2056 232.16 30.4625 230.464 30.4625C228.639 30.4625 227.008 30.1991 225.569 29.6724Z" fill="#052E66"/>
</g>
<defs>
<clipPath id="clip0_75_8248">
<rect width="160.13" height="36" fill="white" transform="translate(81)"/>
</clipPath>
</defs>
</svg>
